{
    "/js/app.js": "/js/app.js",
    "/css/app.css": "/css/app.css",
    "/css/post.css": "/css/post.css",
    "/js/macy.js": "/js/macy.js",
    "/js/lightbox-plus-jquery.js": "/js/lightbox-plus-jquery.js",
    "/js/ckeditor.js": "/js/ckeditor.js",
    "/js/slug.js": "/js/slug.js",
    "/css/lightbox.css": "/css/lightbox.css",
    "/images/close.png": "/images/close.png",
    "/images/loading.gif": "/images/loading.gif",
    "/images/next.png": "/images/next.png",
    "/images/prev.png": "/images/prev.png"
}
